[{
	"id": "COMMITMENT_ISSUES",
	"name": "TRAIT_COMMITMENT_ISSUES",
	"comment": "Нерешительный"
},{
	"id": "CHARISMATIC",
	"name": "TRAIT_CHARISMATIC"
},{
	"id": "EVIL",
	"name": "TRAIT_EVIL"
},{
	"id": "ATHLETIC",
	"name": "TRAIT_ATHLETIC"
},{
	"id": "BRAVE",
	"name": "TRAIT_BRAVE"
},{
	"id": "GENIUS",
	"name": "TRAIT_GENIUS"
}]